<?xml version="1.0" encoding="utf-8"?>
<!-- Generator: Adobe Illustrator 25.4.1, SVG Export Plug-In . SVG Version: 6.00 Build 0)  -->
<svg version="1.1" id="Ebene_1" xmlns="http://www.w3.org/2000/svg" xmlns:xlink="http://www.w3.org/1999/xlink" x="0px" y="0px"
	 viewBox="0 0 566.9 566.9" style="enable-background:new 0 0 566.9 566.9;" xml:space="preserve">
<style type="text/css">
	.st0{fill:#020203;}
</style>
<path class="st0" d="M292.5,317.9c12.7,0,25.2-3.3,36.3-9.6c16.5-9.6,22.2-30.8,12.6-47.3c-3-5.2-7.4-9.6-12.6-12.6l-38.4-22.1
	L201.8,277l54.1,31.2C267,314.6,279.6,318,292.5,317.9z M290.3,261.2l23.2,13.5c2,1.2,2.7,3.8,1.5,5.9c-0.4,0.6-0.9,1.1-1.5,1.5
	c-13.2,7.6-29.4,7.5-42.5-0.1l-8.5-4.9L290.3,261.2z"/>
<path class="st0" d="M291.3,0.8L38.5,144.7v280.7l252.3,140.7l237.7-142.2V144.3L291.3,0.8z M290.3,531.1L68.8,407.6V280.1
	l221.5-126l124,76.5L381,249.7c-7.2,4.2-9.7,13.5-5.6,20.7c4.2,7.2,13.4,9.7,20.7,5.6l77.1-44.6L290.8,118.9l-222,126.4v-82.9
	L290.8,36l207.4,125.3v126.2L292.4,410.6l-135.3-74.3l26.6-15.4c7.3-4.2,9.7-13.4,5.6-20.7c-4.2-7.3-13.4-9.7-20.7-5.6l-73.2,42.3
	L293,445.5l205.2-122.7v84L290.3,531.1z"/>
</svg>
